02/18/20 20:27

Problem 1 (0 points):
Score += 0

Problem 2 (0 points):
Score += 0

Problem 3 (0 points):
Score += 0

Problem 4 (0 points):
Score += 0

Code Quality (5 points):
Score += 0

Total score: 0/40 = 0.0%

-------------------------------------------------------------------------------

02/24/20 08:33

Problem 1 (5 points):
Score += 5

Problem 2 (5 points):
Score += 5

Problem 3 (15 points):
Score += 15

Problem 4 (10 points):
Score += 10

Code Quality (5 points):
Score += 5

Total score: 40/40 = 100.0%

Excellent!

-------------------------------------------------------------------------------

