03/10/20 21:27

Problem 1 (0 points):
Score += 0

Problem 2 (0 points):
Score += 0

Problem 3 (0 points):
Score += 0

Code Quality (5 points):
Score += 0

Total score: 0/25 = 0.0%

-------------------------------------------------------------------------------

03/18/20 00:15

Problem 1 (5 points):
Score += 5

Problem 2 (5 points):
Score += 5

Problem 3 (10 points):
Score += 10

Code Quality (5 points):
Score += 5

Total score: 25/25 = 100.0%

Excellent!

-------------------------------------------------------------------------------

